%YAML 1.1
%TAG !u! tag:unity3d.com,2011:
--- !u!114 &11400000
MonoBehaviour:
  m_ObjectHideFlags: 0
  m_CorrespondingSourceObject: {fileID: 0}
  m_PrefabInstance: {fileID: 0}
  m_PrefabAsset: {fileID: 0}
  m_GameObject: {fileID: 0}
  m_Enabled: 1
  m_EditorHideFlags: 0
  m_Script: {fileID: 11500000, guid: 7968335a9a36cd84d814cbfc988a6f04, type: 3}
  m_Name: Python
  m_EditorClassIdentifier: 
  weaponName: Python
  dmg: 40
  cadence: 0.8
  range: 16
  momentum: 80
  price: 90
  maxammo: 26
  ammo: 26
  maxmag: 6
  mag: 6
  nbullets: 1
  reloadtime: 2
  flare: {fileID: 5001234052331988993, guid: 30961024ee5666b4586af952b1d75f49, type: 3}
