%YAML 1.1
%TAG !u! tag:unity3d.com,2011:
--- !u!21 &2100000
Material:
  serializedVersion: 6
  m_ObjectHideFlags: 0
  m_CorrespondingSourceObject: {fileID: 0}
  m_PrefabInstance: {fileID: 0}
  m_PrefabAsset: {fileID: 0}
  m_Name: tile01
  m_Shader: {fileID: 4, guid: 0000000000000000f000000000000000, type: 0}
  m_ShaderKeywords: 
  m_LightmapFlags: 4
  m_EnableInstancingVariants: 0
  m_DoubleSidedGI: 0
  m_CustomRenderQueue: -1
  stringTagMap: {}
  disabledShaderPasses: []
  m_SavedProperties:
    serializedVersion: 3
    m_TexEnvs:
    - _BumpMap:
        m_Texture: {fileID: 2800000, guid: 2069af240eb8a87429f98af6eb5f8af2, type: 3}
        m_Scale: {x: 12, y: 12}
        m_Offset: {x: 0, y: 0.17}
    - _MainTex:
        m_Texture: {fileID: 2800000, guid: 41575c3d89c4cc24dad44b6a2c5163a1, type: 3}
        m_Scale: {x: 12, y: 12}
        m_Offset: {x: 0, y: 0.17}
    m_Floats:
    - _Shininess: 0.95579696
    m_Colors:
    - _Color: {r: 0.88235295, g: 0.8504057, b: 0.7461073, a: 1}
    - _SpecColor: {r: 0.5, g: 0.5, b: 0.5, a: 1}
